1035328344819036160,PlayWthUrFood,1035328344819036160-Y0BOgiOEL7djQgqVAJUUkMjk3nCTHR,iTDqqg4C6LDCHlDnxkDi6lt0cgxeAS00zN4r7xwM0uagx
1035778371546804224,rament2B,1035778371546804224-j7bJ88LeoVGPYstKZvxNH5qBxB44GY,lYoWeKUq6FMvisykvtyVKRaPeL24IkeghGZOh6xOr9PSt
1037255403577307136,Queen_Dumpling,1037255403577307136-EtbRY25FxUESIS9Tka8Ktm9vRkntxx,3Bvx9w7fINq8C3ESNIkuoTAsjE4Ag4eaI0mdjtfKkdaTq
1037254759466524672,YourPalAlebert,1037254759466524672-5D8IqOZHA2fmy6NVmF2bjbOGD5u21Y,rVVxGcNd3D6DASVtqwKzIKzO8fuKnOCWnZfJIfwiem4Ky
1037253469323722752,BubbleTeaHeaven,1037253469323722752-e1Ca354NMcEvMzFvMXi1LZEL5R1MAy,EDcVKxyFZgL1zYlgbCWB6bkYc7huPtJMN9uHkjONNCi35
1037257177432436736,Latte2ThePartay,1037257177432436736-uRKeWVXKukz2gBV9FNWlHssuniczY0,bqTSfYfsXHIxu065GW4Bv7pByLyeioQScoVsCWURyhzPd
1037258213584850944,EffinParma,1037258213584850944-kwjlyv0pnZlmk7ofyKL0A57gUInGWt,BFSIp96duuckfuih6LfSbdUT29gnrlGeF53QfXIz3gbFu
